(J ,"i â3 '2 r m u w Â¢ . a" ; 3 1; i . .3 Â«J, Â«r. a; Li .1 Wu, P d 1L. Q Q ,3 0x. ,5 .1 1; (h l t u 1 3 a J. . ( q. . MAL :1. mÂ» 1 C nu,â 0 ., ,\/ ft 7. . 3. .L a . . L i . . , .. .IV 0 (L Yâ 1.4 M}, Â»L a. .\ .1 mm .I 6.â r. L w. 7L. run #42, . . l w. , :1 mu. .1 d 3 9L \, J. r. ,. Â¥ \. 10, L! 1:â .ru .. P P a ,. , â1 J .. U âV it ) rubm c n w . 1 a V It E) u v âd rpaak a :1) a . : l u,â XX.â 0 ,U, 3 AC .I , . J (u CI r; Q .\~ .1 C O r one fr Â¥ï¬ MUSIC TIME IN AFRICA FEB 11 '73 Sue Moran folksongs Nigeria Leo Sarkisian IBO IBIBIO William Amadi IKWERRI graded water pots

$411.15 TIC MUSIC: VOICE: MUSIC: :VOICE: aw. â: in AFRICA _ / 'm-zir page 2 wooden clappers The graded water unoical instrumoutg â. 1.x ., ,. ,w.- l. aâ . , , .I/ . ' ' 1n baa Do to rubloo huVC mamas what dlfror according to the dialo:ts spoken in the various *mm tribal â areas, One often boars xhï¬mnmxmgi*9 hater Dots â called IBIT, nonally by those Speaking EFIK, or sometimoa UDU, or EGEDE, which are 180 v â ~ . MEGA/303â; CUT ONE \_,. 0â O C) wr 3m Amudi and his group playing traditional moxie of S'ate in tho Delta r gion in ï¬ï¬ELJPD Nigeria. Another . ' , 1,, .Jnv . Am. J3" âUHâ- . . A, .â trlbo oololglag uo tho grOuy of lBOubpougluv p30} East Central State of Xigeria is the MGBIDI, whose folksongs, when performed by women, are accompanied by metal gongs and rattles. In this next recording a group of MGBIBI .â v accompanying gongs +3cuoolves maile â**â 2*?" UA cu- J âTWOv 5:]f3 w ?< ï¬' (J U LI 1': n1 I Iâ A o; ligkuru 5 Just north of the Major town l, in the plateau Jâ region of the Boone river, wo find the also belong to . mt Worla. InÂ» C) . , >. iâ! .L (b the larg' group of wBow-speaking pooplo Arago speak their own dialect ano have a large number of traditional L3 dance songs performed by groups of both men and women. The usual accompaniment for their gouge is simple handclapping; CUT Timmy L; :30 From Control Nigeria, now, we travel moot to visiâ tho Woro who live in Lagos State. Tho Noro are part of the Yoruba-speaking people and like the Yoruba are very artistic and musical. A variety of musical inatrumonts are used for accompanimont by " " '- C'" -Â»1 .- '3 -"- â n '\ â ' m -'y\ singing groups but nmubably the mom; Dongdl lustlumant la td, AGIDIGBO The AGIDIGBO is of the: & handpimno family of African pots William Amadi MBIRA

z I 2 i w! K O- t FL .;â= â 1 ,5 1 3, at? U . yâ 1.1 l S a ï¬ (\ L oftan L r A. u r W 80 u (.1. 9:0?â w m: Tr}, .âx.Â« h. . v. Â«2134' *1 Nigeria in i'w âu GIG V \t {WT_ A'sâ 1â1 id ... .,.. 3 1 K. W Pam of C33; " '3 E1 ,U$Ci&l 0 a O u 3? , an a: â4.Â» ,~ p a an music Pi \ q f r 3 C Ni J1 H d that youâ . an Â£1 a I" âÂ» if A til! 0 t g . Gummy V L ASL â\ ( enjoyed youâva \, hnpa I Lagos a in F; Woro music GANGAN AGIDIGBO IJAWALE UBUAKA I-YOU-LE-HA IDEHO IJAWALE NIGERIA